{
    "prepare_queue": {
        "installed": [],
        "uninstalled": []
    },
    "config_munge": {
        "files": {}
    },
    "installed_plugins": {
        "cordova-plugin-whitelist": {
            "PACKAGE_NAME": "com.kpit.gps_loc"
        },
        "cordova-plugin-geolocation": {
            "PACKAGE_NAME": "com.kpit.gps_loc"
        },
        "cordova-plugin-dialogs": {
            "PACKAGE_NAME": "com.kpit.gps_loc"
        },
        "cordova-plugin-network-information": {
            "PACKAGE_NAME": "com.kpit.gps_loc"
        },
        "cordova-plugin-sim": {
            "PACKAGE_NAME": "com.kpit.gps_loc"
        }
    },
    "dependent_plugins": {}
}